<?xml version="1.0" encoding="UTF-8"?>
<testsuite xmlns:xsi="http://www.w3.org/2001/XMLSchema-instance" xsi:noNamespaceSchemaLocation="https://maven.apache.org/surefire/maven-surefire-plugin/xsd/surefire-test-report-3.0.xsd" version="3.0" name="TestSuite" time="3.021" tests="5" errors="0" skipped="0" failures="4">
  <properties>
    <property name="awt.toolkit" value="sun.awt.X11.XToolkit"/>
    <property name="fileName" value="testng.xml"/>
    <property name="java.specification.version" value="11"/>
    <property name="sun.cpu.isalist" value=""/>
    <property name="sun.jnu.encoding" value="UTF-8"/>
    <property name="java.class.path" value="/home/teknosys/RestAssuredAutomation/target/test-classes:/home/teknosys/RestAssuredAutomation/target/classes:/home/teknosys/.m2/repository/org/testng/testng/7.5/testng-7.5.jar:/home/teknosys/.m2/repository/com/google/code/findbugs/jsr305/3.0.1/jsr305-3.0.1.jar:/home/teknosys/.m2/repository/org/slf4j/slf4j-api/1.7.32/slf4j-api-1.7.32.jar:/home/teknosys/.m2/repository/com/beust/jcommander/1.78/jcommander-1.78.jar:/home/teknosys/.m2/repository/org/webjars/jquery/3.5.1/jquery-3.5.1.jar:/home/teknosys/.m2/repository/io/rest-assured/rest-assured/4.5.0/rest-assured-4.5.0.jar:/home/teknosys/.m2/repository/org/codehaus/groovy/groovy/3.0.9/groovy-3.0.9.jar:/home/teknosys/.m2/repository/org/codehaus/groovy/groovy-xml/3.0.9/groovy-xml-3.0.9.jar:/home/teknosys/.m2/repository/org/apache/httpcomponents/httpclient/4.5.13/httpclient-4.5.13.jar:/home/teknosys/.m2/repository/org/apache/httpcomponents/httpcore/4.4.13/httpcore-4.4.13.jar:/home/teknosys/.m2/repository/commons-logging/commons-logging/1.2/commons-logging-1.2.jar:/home/teknosys/.m2/repository/org/apache/httpcomponents/httpmime/4.5.13/httpmime-4.5.13.jar:/home/teknosys/.m2/repository/org/hamcrest/hamcrest/2.1/hamcrest-2.1.jar:/home/teknosys/.m2/repository/org/ccil/cowan/tagsoup/tagsoup/1.2.1/tagsoup-1.2.1.jar:/home/teknosys/.m2/repository/io/rest-assured/json-path/4.5.0/json-path-4.5.0.jar:/home/teknosys/.m2/repository/org/codehaus/groovy/groovy-json/3.0.9/groovy-json-3.0.9.jar:/home/teknosys/.m2/repository/io/rest-assured/rest-assured-common/4.5.0/rest-assured-common-4.5.0.jar:/home/teknosys/.m2/repository/io/rest-assured/xml-path/4.5.0/xml-path-4.5.0.jar:/home/teknosys/.m2/repository/org/apache/commons/commons-lang3/3.11/commons-lang3-3.11.jar:/home/teknosys/.m2/repository/com/googlecode/json-simple/json-simple/1.1.1/json-simple-1.1.1.jar:/home/teknosys/.m2/repository/junit/junit/4.10/junit-4.10.jar:/home/teknosys/.m2/repository/org/hamcrest/hamcrest-core/1.1/hamcrest-core-1.1.jar:/home/teknosys/.m2/repository/org/hamcrest/hamcrest-all/1.3/hamcrest-all-1.3.jar:/home/teknosys/.m2/repository/org/apache/poi/poi-ooxml/5.2.0/poi-ooxml-5.2.0.jar:/home/teknosys/.m2/repository/org/apache/poi/poi-ooxml-lite/5.2.0/poi-ooxml-lite-5.2.0.jar:/home/teknosys/.m2/repository/org/apache/xmlbeans/xmlbeans/5.0.3/xmlbeans-5.0.3.jar:/home/teknosys/.m2/repository/org/apache/commons/commons-compress/1.21/commons-compress-1.21.jar:/home/teknosys/.m2/repository/commons-io/commons-io/2.11.0/commons-io-2.11.0.jar:/home/teknosys/.m2/repository/com/github/virtuald/curvesapi/1.06/curvesapi-1.06.jar:/home/teknosys/.m2/repository/org/apache/logging/log4j/log4j-api/2.17.1/log4j-api-2.17.1.jar:/home/teknosys/.m2/repository/org/apache/commons/commons-collections4/4.4/commons-collections4-4.4.jar:/home/teknosys/.m2/repository/org/apache/poi/poi/5.2.0/poi-5.2.0.jar:/home/teknosys/.m2/repository/commons-codec/commons-codec/1.15/commons-codec-1.15.jar:/home/teknosys/.m2/repository/org/apache/commons/commons-math3/3.6.1/commons-math3-3.6.1.jar:/home/teknosys/.m2/repository/com/zaxxer/SparseBitSet/1.2/SparseBitSet-1.2.jar:/home/teknosys/.m2/repository/com/jayway/jsonpath/json-path/2.7.0/json-path-2.7.0.jar:/home/teknosys/.m2/repository/net/minidev/json-smart/2.4.7/json-smart-2.4.7.jar:/home/teknosys/.m2/repository/net/minidev/accessors-smart/2.4.7/accessors-smart-2.4.7.jar:/home/teknosys/.m2/repository/org/ow2/asm/asm/9.1/asm-9.1.jar:/home/teknosys/.m2/repository/com/google/code/gson/gson/2.8.9/gson-2.8.9.jar:"/>
    <property name="java.vm.vendor" value="Red Hat, Inc."/>
    <property name="sun.arch.data.model" value="64"/>
    <property name="java.vendor.url" value="https://www.redhat.com/"/>
    <property name="user.timezone" value="America/Chicago"/>
    <property name="java.vm.specification.version" value="11"/>
    <property name="os.name" value="Linux"/>
    <property name="sun.java.launcher" value="SUN_STANDARD"/>
    <property name="user.country" value="US"/>
    <property name="sun.boot.library.path" value="/usr/lib/jvm/java-11-openjdk-11.0.13.0.8-2.fc35.x86_64/lib"/>
    <property name="sun.java.command" value="/home/teknosys/RestAssuredAutomation/target/surefire/surefirebooter10135277604835517953.jar /home/teknosys/RestAssuredAutomation/target/surefire 2022-02-06T19-52-41_125-jvmRun1 surefire7930361679271330409tmp surefire_08712513959450726636tmp"/>
    <property name="jdk.debug" value="release"/>
    <property name="surefire.test.class.path" value="/home/teknosys/RestAssuredAutomation/target/test-classes:/home/teknosys/RestAssuredAutomation/target/classes:/home/teknosys/.m2/repository/org/testng/testng/7.5/testng-7.5.jar:/home/teknosys/.m2/repository/com/google/code/findbugs/jsr305/3.0.1/jsr305-3.0.1.jar:/home/teknosys/.m2/repository/org/slf4j/slf4j-api/1.7.32/slf4j-api-1.7.32.jar:/home/teknosys/.m2/repository/com/beust/jcommander/1.78/jcommander-1.78.jar:/home/teknosys/.m2/repository/org/webjars/jquery/3.5.1/jquery-3.5.1.jar:/home/teknosys/.m2/repository/io/rest-assured/rest-assured/4.5.0/rest-assured-4.5.0.jar:/home/teknosys/.m2/repository/org/codehaus/groovy/groovy/3.0.9/groovy-3.0.9.jar:/home/teknosys/.m2/repository/org/codehaus/groovy/groovy-xml/3.0.9/groovy-xml-3.0.9.jar:/home/teknosys/.m2/repository/org/apache/httpcomponents/httpclient/4.5.13/httpclient-4.5.13.jar:/home/teknosys/.m2/repository/org/apache/httpcomponents/httpcore/4.4.13/httpcore-4.4.13.jar:/home/teknosys/.m2/repository/commons-logging/commons-logging/1.2/commons-logging-1.2.jar:/home/teknosys/.m2/repository/org/apache/httpcomponents/httpmime/4.5.13/httpmime-4.5.13.jar:/home/teknosys/.m2/repository/org/hamcrest/hamcrest/2.1/hamcrest-2.1.jar:/home/teknosys/.m2/repository/org/ccil/cowan/tagsoup/tagsoup/1.2.1/tagsoup-1.2.1.jar:/home/teknosys/.m2/repository/io/rest-assured/json-path/4.5.0/json-path-4.5.0.jar:/home/teknosys/.m2/repository/org/codehaus/groovy/groovy-json/3.0.9/groovy-json-3.0.9.jar:/home/teknosys/.m2/repository/io/rest-assured/rest-assured-common/4.5.0/rest-assured-common-4.5.0.jar:/home/teknosys/.m2/repository/io/rest-assured/xml-path/4.5.0/xml-path-4.5.0.jar:/home/teknosys/.m2/repository/org/apache/commons/commons-lang3/3.11/commons-lang3-3.11.jar:/home/teknosys/.m2/repository/com/googlecode/json-simple/json-simple/1.1.1/json-simple-1.1.1.jar:/home/teknosys/.m2/repository/junit/junit/4.10/junit-4.10.jar:/home/teknosys/.m2/repository/org/hamcrest/hamcrest-core/1.1/hamcrest-core-1.1.jar:/home/teknosys/.m2/repository/org/hamcrest/hamcrest-all/1.3/hamcrest-all-1.3.jar:/home/teknosys/.m2/repository/org/apache/poi/poi-ooxml/5.2.0/poi-ooxml-5.2.0.jar:/home/teknosys/.m2/repository/org/apache/poi/poi-ooxml-lite/5.2.0/poi-ooxml-lite-5.2.0.jar:/home/teknosys/.m2/repository/org/apache/xmlbeans/xmlbeans/5.0.3/xmlbeans-5.0.3.jar:/home/teknosys/.m2/repository/org/apache/commons/commons-compress/1.21/commons-compress-1.21.jar:/home/teknosys/.m2/repository/commons-io/commons-io/2.11.0/commons-io-2.11.0.jar:/home/teknosys/.m2/repository/com/github/virtuald/curvesapi/1.06/curvesapi-1.06.jar:/home/teknosys/.m2/repository/org/apache/logging/log4j/log4j-api/2.17.1/log4j-api-2.17.1.jar:/home/teknosys/.m2/repository/org/apache/commons/commons-collections4/4.4/commons-collections4-4.4.jar:/home/teknosys/.m2/repository/org/apache/poi/poi/5.2.0/poi-5.2.0.jar:/home/teknosys/.m2/repository/commons-codec/commons-codec/1.15/commons-codec-1.15.jar:/home/teknosys/.m2/repository/org/apache/commons/commons-math3/3.6.1/commons-math3-3.6.1.jar:/home/teknosys/.m2/repository/com/zaxxer/SparseBitSet/1.2/SparseBitSet-1.2.jar:/home/teknosys/.m2/repository/com/jayway/jsonpath/json-path/2.7.0/json-path-2.7.0.jar:/home/teknosys/.m2/repository/net/minidev/json-smart/2.4.7/json-smart-2.4.7.jar:/home/teknosys/.m2/repository/net/minidev/accessors-smart/2.4.7/accessors-smart-2.4.7.jar:/home/teknosys/.m2/repository/org/ow2/asm/asm/9.1/asm-9.1.jar:/home/teknosys/.m2/repository/com/google/code/gson/gson/2.8.9/gson-2.8.9.jar:"/>
    <property name="sun.cpu.endian" value="little"/>
    <property name="user.home" value="/home/teknosys"/>
    <property name="user.language" value="en"/>
    <property name="java.specification.vendor" value="Oracle Corporation"/>
    <property name="java.version.date" value="2021-10-19"/>
    <property name="java.home" value="/usr/lib/jvm/java-11-openjdk-11.0.13.0.8-2.fc35.x86_64"/>
    <property name="file.separator" value="/"/>
    <property name="basedir" value="/home/teknosys/RestAssuredAutomation"/>
    <property name="java.vm.compressedOopsMode" value="Zero based"/>
    <property name="line.separator" value="&#10;"/>
    <property name="java.specification.name" value="Java Platform API Specification"/>
    <property name="java.vm.specification.vendor" value="Oracle Corporation"/>
    <property name="java.awt.graphicsenv" value="sun.awt.X11GraphicsEnvironment"/>
    <property name="surefire.real.class.path" value="/home/teknosys/RestAssuredAutomation/target/surefire/surefirebooter10135277604835517953.jar"/>
    <property name="sun.management.compiler" value="HotSpot 64-Bit Tiered Compilers"/>
    <property name="java.runtime.version" value="11.0.13+8"/>
    <property name="user.name" value="teknosys"/>
    <property name="path.separator" value=":"/>
    <property name="os.version" value="5.14.10-300.fc35.x86_64"/>
    <property name="java.runtime.name" value="OpenJDK Runtime Environment"/>
    <property name="file.encoding" value="UTF-8"/>
    <property name="java.vm.name" value="OpenJDK 64-Bit Server VM"/>
    <property name="java.vendor.version" value="18.9"/>
    <property name="localRepository" value="/home/teknosys/.m2/repository"/>
    <property name="java.vendor.url.bug" value="https://bugzilla.redhat.com/enter_bug.cgi?product=Fedora&amp;component=java-11-openjdk&amp;version=35"/>
    <property name="java.io.tmpdir" value="/tmp"/>
    <property name="java.version" value="11.0.13"/>
    <property name="user.dir" value="/home/teknosys/RestAssuredAutomation"/>
    <property name="os.arch" value="amd64"/>
    <property name="java.vm.specification.name" value="Java Virtual Machine Specification"/>
    <property name="java.awt.printerjob" value="sun.print.PSPrinterJob"/>
    <property name="sun.os.patch.level" value="unknown"/>
    <property name="java.library.path" value="/usr/java/packages/lib:/usr/lib64:/lib64:/lib:/usr/lib"/>
    <property name="java.vm.info" value="mixed mode, sharing"/>
    <property name="java.vendor" value="Red Hat, Inc."/>
    <property name="java.vm.version" value="11.0.13+8"/>
    <property name="sun.io.unicode.encoding" value="UnicodeLittle"/>
    <property name="java.class.version" value="55.0"/>
  </properties>
  <testcase name="samplePostTest1" classname="RESTAPITesting.Framework.SamplePostTest" time="0.106">
    <failure message="Attempted to serialize java.lang.Class: java.lang.reflect.AccessibleObject. Forgot to register a type adapter?" type="java.lang.UnsupportedOperationException"><![CDATA[java.lang.UnsupportedOperationException: Attempted to serialize java.lang.Class: java.lang.reflect.AccessibleObject. Forgot to register a type adapter?
	at RESTAPITesting.Framework.SamplePostTest.samplePostTest1(SamplePostTest.java:25)
]]></failure>
    <system-err><![CDATA[SLF4J: Failed to load class "org.slf4j.impl.StaticLoggerBinder".
SLF4J: Defaulting to no-operation (NOP) logger implementation
SLF4J: See http://www.slf4j.org/codes.html#StaticLoggerBinder for further details.
]]></system-err>
  </testcase>
  <testcase name="sampletest1" classname="RESTAPITesting.Framework.SampleTest" time="1.809">
    <failure message="Connection refused (Connection refused)" type="java.net.ConnectException"><![CDATA[java.net.ConnectException: Connection refused (Connection refused)
	at RESTAPITesting.Framework.SampleTest.sampletest1(SampleTest.java:15)
]]></failure>
    <system-out><![CDATA[Request method:	GET
Request URI:	http://localhost:8080/app/videogames
Proxy:			<none>
Request params:	<none>
Query params:	<none>
Form params:	<none>
Path params:	<none>
Headers:		Authorization=Bearer
				Accept=application/json, application/javascript, text/javascript, text/json
Cookies:		<none>
Multiparts:		<none>
Body:			<none>
]]></system-out>
  </testcase>
  <testcase name="sampletest2" classname="RESTAPITesting.Framework.SampleTest" time="0.045">
    <failure message="Connection refused (Connection refused)" type="java.net.ConnectException"><![CDATA[java.net.ConnectException: Connection refused (Connection refused)
	at RESTAPITesting.Framework.SampleTest.sampletest2(SampleTest.java:27)
]]></failure>
    <system-out><![CDATA[Request method:	GET
Request URI:	http://localhost:8080/app/videogames/13
Proxy:			<none>
Request params:	<none>
Query params:	<none>
Form params:	<none>
Path params:	key=13
Headers:		Authorization=Bearer
				Accept=application/json, application/javascript, text/javascript, text/json
Cookies:		<none>
Multiparts:		<none>
Body:			<none>
]]></system-out>
  </testcase>
  <testcase name="sampletest3" classname="RESTAPITesting.Framework.SampleTest" time="0.008">
    <failure message="Illegal character in path at index 37: http://localhost:8080/app/videogames/{PathParamsmap}" type="java.net.URISyntaxException"><![CDATA[java.net.URISyntaxException: Illegal character in path at index 37: http://localhost:8080/app/videogames/{PathParamsmap}
	at RESTAPITesting.Framework.SampleTest.sampletest3(SampleTest.java:40)
]]></failure>
  </testcase>
  <testcase name="testCase2" classname="RESTAPITesting.BasicAPITesting.TestCase2" time="0.503">
    <system-out><![CDATA[Response Body is {"page":2,"per_page":6,"total":12,"total_pages":2,"data":[{"id":7,"email":"michael.lawson@reqres.in","first_name":"Michael","last_name":"Lawson","avatar":"https://reqres.in/img/faces/7-image.jpg"},{"id":8,"email":"lindsay.ferguson@reqres.in","first_name":"Lindsay","last_name":"Ferguson","avatar":"https://reqres.in/img/faces/8-image.jpg"},{"id":9,"email":"tobias.funke@reqres.in","first_name":"Tobias","last_name":"Funke","avatar":"https://reqres.in/img/faces/9-image.jpg"},{"id":10,"email":"byron.fields@reqres.in","first_name":"Byron","last_name":"Fields","avatar":"https://reqres.in/img/faces/10-image.jpg"},{"id":11,"email":"george.edwards@reqres.in","first_name":"George","last_name":"Edwards","avatar":"https://reqres.in/img/faces/11-image.jpg"},{"id":12,"email":"rachel.howell@reqres.in","first_name":"Rachel","last_name":"Howell","avatar":"https://reqres.in/img/faces/12-image.jpg"}],"support":{"url":"https://reqres.in/#support-heading","text":"To keep ReqRes free, contributions towards server costs are appreciated!"}}
Status code 200
response.getTime()
response statusline HTTP/1.1 200 OK
header contentType is application/json; charset=utf-8
]]></system-out>
  </testcase>
</testsuite>